…
Here are a few examples of retrieving **real-time and historical
financial
data**\!

#### Time Series Data

``` r
av_get(symbol = "MSFT", av_fun = "TIME_SERIES_INTRADAY", interval = "15min")
#> # A tibble: 100 x 6
#>    timestamp            open  high   low close  volume
#>    <dttm>              <dbl> <dbl> <dbl> <dbl>   <dbl>
#>  1 2020-02-25 10:45:00  172.  173.  171.  173. 1947367
#>  2 2020-02-25 11:00:00  173.  173.  171.  171. 1648589
#>  3 2020-02-25 11:15:00  171.  172.  170.  171. 1912259
#>  4 2020-02-25 11:30:00  171.  171.  170.  171. 2144892
#>  5 2020-02-25 11:45:00  171.  171.  171.  171. 1496695
#>  6 2020-02-25 12:00:00  171.  173.  171.  172. 1445612
#>  7 2020-02-25 12:15:00  172.  173.  172.  172. 1224751
#>  8 2020-02-25 12:30:00  172.  172.  171.  172. 1449176
#>  9 2020-02-25 12:45:00  172.  172.  171.  171. 1065737
#> 10 2020-02-25 13:00:00  171.  172.  171.  171.  997559
#> # … with 90 more rows
```
…
``` r
# REAL-TIME QUOTE
av_get("EUR/USD", av_fun = "CURRENCY_EXCHANGE_RATE")
#> # A tibble: 1 x 9
#>   from_currency_c… from_currency_n… to_currency_code to_currency_name
#>   <chr>            <chr>            <chr>            <chr>           
#> 1 EUR              Euro             USD              United States D…
#> # … with 5 more variables: exchange_rate <dbl>, last_refreshed <dttm>,
#> #   time_zone <chr>, bid_price <dbl>, ask_price <dbl>
```

``` r
# TIME SERIES
av_get("EUR/USD", av_fun = "FX_DAILY")
#> # A tibble: 100 x 5
#>    timestamp   open  high   low close
#>    <date>     <dbl> <dbl> <dbl> <dbl>
#>  1 2019-11-06  1.11  1.11  1.11  1.11
#>  2 2019-11-07  1.11  1.11  1.10  1.10
#>  3 2019-11-08  1.10  1.11  1.10  1.10
#>  4 2019-11-10  1.10  1.10  1.10  1.10
#>  5 2019-11-11  1.10  1.10  1.10  1.10
#>  6 2019-11-12  1.10  1.10  1.10  1.10
#>  7 2019-11-13  1.10  1.10  1.10  1.10
#>  8 2019-11-14  1.10  1.10  1.10  1.10
#>  9 2019-11-15  1.10  1.11  1.10  1.11
#> 10 2019-11-17  1.11  1.11  1.10  1.11
#> # … with 90 more rows
```

#### Technical Indicators

``` r
av_get(symbol = "MSFT", av_fun = "AROON", interval = "monthly", time_period = 60)
#> # A tibble: 180 x 3
#>    time       aroon_down aroon_up
#>    <date>          <dbl>    <dbl>
#>  1 2020-02-28       10      100  
#>  2 2020-01-31       11.7    100  
#>  3 2019-12-31       13.3    100  
#>  4 2019-11-29       15      100  
#>  5 2019-10-31       16.7    100  
#>  6 2019-09-30       18.3    100  
#>  7 2019-08-30       20       98.3
#>  8 2019-07-31       21.7    100  
#>  9 2019-06-28       23.3    100  
#> 10 2019-05-31        0       98.3
#> # … with 170 more rows
```

#### Sector Performances

``` r
av_get(av_fun = "SECTOR")
#> # A tibble: 110 x 3
#>    rank_group                             sector  change
#>    <chr>                                  <chr>    <dbl>
#>  1 Rank A: Real-Time Performance          Energy  0.0125
#>  2 Rank B: 1 Day Performance              Energy  0.0125
#>  3 Rank C: 5 Day Performance              Energy -0.154 
#>  4 Rank D: 1 Month Performance            Energy -0.178 
#>  5 Rank E: 3 Month Performance            Energy -0.212 
#>  6 Rank F: Year-to-Date (YTD) Performance Energy -0.247 
#>  7 Rank G: 1 Year Performance             Energy -0.291 
#>  8 Rank H: 3 Year Performance             Energy -0.341 
#>  9 Rank I: 5 Year Performance             Energy -0.405 
#> 10 Rank J: 10 Year Performance            Energy -0.179 
#> # … with 100 more rows
```
…
